Predicting Credit Card Fraud
…
  mutate(dateTime = lubridate::ymd_hms(e[e$transactionAmount != 0, 5])) %>%
  select(-one_of(c('transactionDateTime'))) %>%
  mutate(date = as.Date(dateTime)) %>%
  mutate(isFraud = ifelse(isFraud == 'TRUE', 1, 0), # convert to numeric
         expirationDateKeyInMatch = ifelse(expirationDateKeyInMatch == 'TRUE', 1, 0), # ditto
         cardPresent = ifelse(cardPresent == 'TRUE', 1, 0)) %>% # ditto
  filter(transactionType == 'PURCHASE') %>%
  mutate(merchantCategoryCode = as.numeric(as.factor(merchantCategoryCode))) %>%
  filter(isFraud == 1) %>%
  group_by(merchantName, isFraud) %>%
  count() %>%
  arrange(desc(n)) %>%
  print(n=22) # top 22 with count >= 100

## # A tibble: 1,016 × 3
## # Groups:   merchantName, isFraud [1,016]
##    merchantName                  isFraud     n
##    <chr>                           <dbl> <int>
##  1 Lyft                                1   707
##  2 ebay.com                            1   609
##  3 Fresh Flowers                       1   516
##  4 Uber                                1   481
##  5 cheapfast.com                       1   415
##  6 walmart.com                         1   403
##  7 sears.com                           1   396
##  8 oldnavy.com                         1   376
##  9 staples.com                         1   374
## 10 alibaba.com                         1   359
## 11 amazon.com                          1   345
## 12 gap.com                             1   341
## 13 target.com                          1   338
## 14 apple.com                           1   335
## 15 discount.com                        1   316
## 16 American Airlines                   1   269
## 17 Fresh eCards                        1   200
## 18 Blue Mountain Online Services       1   196
## 19 Next Day Online Services            1   162
## 20 Blue Mountain eCards                1   113
## 21 Fresh Online Services               1   106
## 22 Mobile eCards                       1   100
## # … with 994 more rows
…
